dump.vcd
$date
	Mon Jul 15 16:47:02 2024
$end
$version
	Icarus Verilog
$end
$timescale
	1s
$end
$scope module tb_asyncfifo $end
$var wire 1 ! full $end
$var wire 1 " empty $end
$var wire 8 # data_out [7:0] $end
$var parameter 32 $ DATA_WIDTH $end
$var reg 8 % data_in [7:0] $end
$var reg 1 & r_en $end
$var reg 1 ' rclk $end
$var reg 1 ( rrst_n $end
$var reg 1 ) w_en $end
$var reg 1 * wclk $end
$var reg 8 + wdata [7:0] $end
$var reg 1 , wrst_n $end
$var integer 32 - read_index [31:0] $end
$var integer 32 . write_index [31:0] $end
$scope module as_fifo $end
$var wire 8 / data_in [7:0] $end
$var wire 1 & r_en $end
$var wire 1 ' rclk $end
$var wire 1 ( rrst_n $end
$var wire 1 ) w_en $end
$var wire 1 * wclk $end
$var wire 1 , wrst_n $end
$var wire 4 0 g_wptr_sync [3:0] $end
$var wire 4 1 g_wptr [3:0] $end
$var wire 4 2 g_rptr_sync [3:0] $end
$var wire 4 3 g_rptr [3:0] $end
$var wire 1 ! full $end
$var wire 1 " empty $end
$var wire 8 4 data_out [7:0] $end
$var wire 4 5 b_wptr [3:0] $end
$var wire 4 6 b_rptr [3:0] $end
$var parameter 32 7 DATA_WIDTH $end
$var parameter 32 8 DEPTH $end
$var parameter 32 9 PTR_WIDTH $end
$scope module fifom $end
$var wire 8 : data_in [7:0] $end
$var wire 1 & r_en $end
$var wire 1 ' rdclk $end
$var wire 1 ) w_en $end
$var wire 1 * wclk $end
$var wire 1 ! full $end
$var wire 1 " empty $end
$var wire 4 ; b_wptr [3:0] $end
$var wire 4 < b_rptr [3:0] $end
$var parameter 32 = DEPTH $end
$var parameter 32 > PTRWIDTH $end
$var parameter 32 ? WIDTH $end
$var reg 8 @ data_out [7:0] $end
$upscope $end
$scope module rptr_h $end
$var wire 1 & r_en $end
$var wire 1 ' rdclk $end
$var wire 1 ( read_reset_n $end
$var wire 4 A g_wptr_sync [3:0] $end
$var wire 4 B binary [3:0] $end
$var wire 4 C b_rd_ptr_next [3:0] $end
$var parameter 32 D PTRWIDTH $end
$var reg 4 E b_rd_ptr [3:0] $end
$var reg 1 " empty $end
$var reg 4 F g_rd_ptr [3:0] $end
$scope module uut $end
$var wire 4 G data_out [3:0] $end
$var wire 4 H data_in [3:0] $end
$var parameter 33 I width $end
$scope begin genblk1[0] $end
$var parameter 2 J i $end
$upscope $end
$scope begin genblk1[1] $end
$var parameter 2 K i $end
$upscope $end
$scope begin genblk1[2] $end
$var parameter 3 L i $end
$upscope $end
$upscope $end
$upscope $end
$scope module sync_rptr $end
$var wire 1 * clk $end
$var wire 4 M data_in [3:0] $end
$var wire 1 , reset_n $end
$var parameter 32 N WIDTH $end
$var reg 4 O q1 [3:0] $end
$var reg 4 P sync_out [3:0] $end
$upscope $end
$scope module sync_wptr $end
$var wire 1 ' clk $end
$var wire 1 ( reset_n $end
$var wire 4 Q data_in [3:0] $end
$var parameter 32 R WIDTH $end
$var reg 4 S q1 [3:0] $end
$var reg 4 T sync_out [3:0] $end
$upscope $end
$scope module wptr_h $end
$var wire 4 U g_rdptr_sync [3:0] $end
$var wire 1 ) w_en $end
$var wire 1 * wclk $end
$var wire 1 , wr_reset_n $end
$var wire 4 V gray2 [3:0] $end
$var wire 4 W gray [3:0] $end
$var wire 4 X b_wrptr_next [3:0] $end
$var parameter 32 Y PTRWIDTH $end
$var reg 4 Z b_wrptr [3:0] $end
$var reg 1 ! full $end
$var reg 4 [ g_wrptr [3:0] $end
$scope module uut $end
$var wire 4 \ data_in [3:0] $end
$var wire 4 ] data_out [3:0] $end
$var parameter 33 ^ width $end
$scope begin genblk1[0] $end
$var parameter 2 _ i $end
$upscope $end
$scope begin genblk1[1] $end
$var parameter 2 ` i $end
$upscope $end
$scope begin genblk1[2] $end
$var parameter 3 a i $end
$upscope $end
$upscope $end
$scope module uut2 $end
$var wire 4 b data_in [3:0] $end
$var wire 4 c data_out [3:0] $end
$var parameter 33 d width $end
$scope begin genblk1[0] $end
$var parameter 2 e i $end
$upscope $end
$scope begin genblk1[1] $end
$var parameter 2 f i $end
$upscope $end
$scope begin genblk1[2] $end
$var parameter 3 g i $end
$upscope $end
$upscope $end
$upscope $end
$upscope $end
$upscope $end
$enddefinitions $end
$comment Show the parameter values. $end
$dumpall
b10 g
b1 f
b0 e
b100 d
b10 a
b1 `
b0 _
b100 ^
b11 Y
b11 R
b11 N
b10 L
b1 K
b0 J
b100 I
b11 D
b1000 ?
b11 >
b1000 =
b11 9
b1000 8
b1000 7
b1000 $
$end
#0
$dumpvars
bx c
bx b
b0 ]
b0 \
b0 [
b0 Z
b0 X
b0 W
bx V
bx U
bx T
bx S
b0 Q
bx P
bx O
b0 M
bx H
bx G
b0 F
b0 E
b0 C
bx B
bx A
bx @
b0 <
b0 ;
b0 :
b0 6
b0 5
bx 4
b0 3
bx 2
b0 1
bx 0
b0 /
b0 .
b0 -
0,
bx +
0*
0)
0(
0'
0&
b0 %
bx #
0"
0!
$end
#10
b0 V
b0 c
b0 2
b0 P
b0 U
b0 b
b0 O
1*
#20
0*
#30
1*
#35
b0 B
b0 G
b0 0
b0 A
b0 H
b0 T
b0 S
1'
#40
0*
#50
1*
#60
0*
#70
1*
0'
#80
0*
#90
1*
#100
0*
#105
1'
#110
1*
#120
0*
#130
1*
#140
0*
0'
#150
1*
#160
0*
#170
1*
#175
1'
#180
0*
#190
1,
1*
#200
0*
#210
b1 X
b1 .
b100100 %
b100100 /
b100100 :
1)
1*
0'
#220
0*
#230
b1 W
b1 ]
b1 1
b1 Q
b1 [
b1 5
b1 ;
b1 Z
b1 \
b1 X
b10 .
0)
1*
#240
0*
#245
1'
#250
b10 X
b11 .
b10000001 %
b10000001 /
b10000001 :
1)
1*
#260
0*
#270
b11 W
b11 ]
b11 1
b11 Q
b11 [
b10 5
b10 ;
b10 Z
b10 \
b10 X
b100 .
0)
1*
#280
0*
0'
#290
b11 X
b101 .
b1001 %
b1001 /
b1001 :
1)
1*
#300
0*
#310
b10 W
b10 ]
b10 1
b10 Q
b10 [
b11 5
b11 ;
b11 Z
b11 \
b11 X
b110 .
0)
1*
#315
1'
#320
0*
#330
b100 X
b111 .
b1100011 %
b1100011 /
b1100011 :
1)
1*
#340
0*
#350
b111 W
b111 ]
b110 1
b110 Q
b110 [
b100 5
b100 ;
b100 Z
b100 \
b100 X
b1000 .
0)
1*
0'
#360
0*
#370
b101 X
b1001 .
b1101 %
b1101 /
b1101 :
1)
1*
#380
0*
#385
1'
#390
b110 W
b110 ]
b111 1
b111 Q
b111 [
b101 5
b101 ;
b101 Z
b101 \
b101 X
b1010 .
0)
1*
#400
0*
#410
b110 X
b1011 .
b10001101 %
b10001101 /
b10001101 :
1)
1*
#420
0*
0'
#430
b100 W
b100 ]
b101 1
b101 Q
b101 [
b110 5
b110 ;
b110 Z
b110 \
b110 X
b1100 .
0)
1*
#440
0*
#450
b111 X
b1101 .
b1100101 %
b1100101 /
b1100101 :
1)
1*
#455
1'
#460
0*
#470
b101 W
b101 ]
b100 1
b100 Q
b100 [
b111 5
b111 ;
b111 Z
b111 \
b111 X
b1110 .
0)
1*
#480
0*
#490
b1000 X
b1111 .
b10010 %
b10010 /
b10010 :
1)
1*
0'
#500
0*
#510
b1111 W
b1111 ]
b1100 1
b1100 Q
b1100 [
b1000 5
b1000 ;
b1000 Z
b1000 \
b1000 X
b10000 .
0)
1*
#520
0*
#525
1'
#530
1!
b1000 X
b10001 .
b1 %
b1 /
b1 :
1)
1*
#540
0*
#550
b10010 .
1*
#560
0*
0'
#570
b10011 .
1*
#580
0*
#590
b10100 .
1*
#595
1'
#600
0*
#610
b10101 .
1*
#620
0*
#630
b10110 .
1*
0'
#640
0*
#650
b10111 .
1*
#660
0*
#665
1'
#670
b11000 .
1*
#680
0*
#690
b11001 .
1*
#700
0*
0'
#710
b11010 .
1*
#720
0*
#730
b11011 .
1*
#735
1'
#740
0*
#750
b11100 .
1*
#760
0*
#770
b11101 .
1*
0'
#780
0*
#790
b11110 .
1*
#800
0*
#805
1'
#810
1*
#820
0*
#830
1*
#840
0*
0'
b0 .
#850
b1 .
1*
#860
0*
#870
b10 .
1*
#875
1'
#880
0*
#890
b11 .
1*
#900
0*
#910
b100 .
1*
0'
#920
0*
#930
b101 .
1*
#940
0*
#945
1'
#950
b110 .
1*
#960
0*
#970
b111 .
1*
#980
0*
0'
#990
b1000 .
1*
#1000
0*
#1010
b1001 .
1*
#1015
1'
#1020
0*
#1030
b1010 .
1*
#1040
0*
#1050
b1011 .
1*
0'
#1060
0*
#1070
b1100 .
1*
#1080
0*
#1085
1'
#1090
b1101 .
1*
#1100
0*
#1110
b1110 .
1*
#1120
0*
0'
#1130
b1111 .
1*
#1140
0*
#1150
b10000 .
1*
#1155
1'
#1160
0*
#1170
b10001 .
1*
#1180
0*
#1190
b10010 .
1*
0'
#1200
0*
#1210
b10011 .
1*
#1220
0*
#1225
1'
#1230
b10100 .
1*
#1240
0*
#1250
b10101 .
1*
#1260
0*
0'
#1270
b10110 .
1*
#1280
0*
#1290
b10111 .
1*
#1295
1'
#1300
0*
#1310
b11000 .
1*
#1320
0*
#1330
b11001 .
1*
0'
#1340
0*
#1350
b11010 .
1*
#1360
0*
#1365
1(
1'
#1370
b11011 .
1*
#1380
0*
#1390
b11100 .
1*
#1400
0*
0'
#1410
b11101 .
1*
#1420
0*
#1430
b11110 .
1*
#1435
b1100 S
b100100 #
b100100 4
b100100 @
1"
b0 C
b1 -
b100100 +
1&
1'
#1440
0*
#1450
1*
#1460
0*
#1470
1*
0'
#1480
0*
#1490
1*
#1500
0*
#1505
b1000 B
b1000 G
b1100 0
b1100 A
b1100 H
b1100 T
b10 -
1'
#1510
1*
#1520
0*
#1530
1*
#1540
0*
0'
#1550
1*
#1560
0*
#1570
1*
#1575
b1 C
0"
b11 -
1'
#1580
0*
#1590
1*
#1600
0*
#1610
1*
0'
#1620
0*
#1630
1*
#1640
0*
#1645
b1 3
b1 F
b1 M
b1 6
b1 <
b1 E
b1 C
b100 -
0&
1'
#1650
b1 O
1*
#1660
0*
#1670
b1 V
b1 c
b1 2
b1 P
b1 U
b1 b
1*
#1680
0*
0'
#1690
b1001 X
0!
1*
#1700
0*
#1710
b1110 W
b1110 ]
b1101 1
b1101 Q
b1101 [
b1010 X
b1001 5
b1001 ;
b1001 Z
b1001 \
1*
#1715
b1101 S
b10000001 #
b10000001 4
b10000001 @
b10 C
b101 -
b1001 +
1&
1'
#1720
0*
#1730
b1100 W
b1100 ]
1!
b1111 1
b1111 Q
b1111 [
b1010 X
b1010 5
b1010 ;
b1010 Z
b1010 \
1*
#1740
0*
#1750
b1011 X
0!
1*
0'
#1760
0*
#1770
b1101 W
b1101 ]
b1110 1
b1110 Q
b1110 [
b1100 X
b1011 5
b1011 ;
b1011 Z
b1011 \
1*
#1780
0*
#1785
b1001 B
b1001 G
b1101 0
b1101 A
b1101 H
b1101 T
b1110 S
b11 3
b11 F
b11 M
b10 6
b10 <
b10 E
b10 C
b110 -
0&
1'
#1790
b1000 W
b1000 ]
b11 O
b1010 1
b1010 Q
b1010 [
b1101 X
b1100 5
b1100 ;
b1100 Z
b1100 \
1*
#1800
0*
#1810
b10 V
b10 c
b1001 W
b1001 ]
b11 2
b11 P
b11 U
b11 b
b1011 1
b1011 Q
b1011 [
b1110 X
b1101 5
b1101 ;
b1101 Z
b1101 \
1*
#1820
0*
0'
#1830
b1011 W
b1011 ]
b1001 1
b1001 Q
b1001 [
b1111 X
b1110 5
b1110 ;
b1110 Z
b1110 \
1*
#1840
0*
#1850
b1010 W
b1010 ]
b1000 1
b1000 Q
b1000 [
b0 X
b1111 5
b1111 ;
b1111 Z
b1111 \
1*
#1855
b1011 B
b1011 G
b1110 0
b1110 A
b1110 H
b1110 T
b1000 S
b1001 #
b1001 4
b1001 @
b11 C
b111 -
b1100011 +
1&
1'
#1860
0*
#1870
b0 W
b0 ]
b0 1
b0 Q
b0 [
b1 X
b0 5
b0 ;
b0 Z
b0 \
1*
#1880
0*
#1890
b1 W
b1 ]
b1 1
b1 Q
b1 [
b10 X
b1 5
b1 ;
b1 Z
b1 \
1*
0'
#1900
0*
#1910
b11 W
b11 ]
b11 1
b11 Q
b11 [
b11 X
b10 5
b10 ;
b10 Z
b10 \
1*
#1920
0*
#1925
b1111 B
b1111 G
b1000 0
b1000 A
b1000 H
b1000 T
b11 S
b10 3
b10 F
b10 M
b11 6
b11 <
b11 E
b11 C
b1000 -
0&
1'
#1930
b10 W
b10 ]
b10 O
b10 1
b10 Q
b10 [
b100 X
b11 5
b11 ;
b11 Z
b11 \
1*
#1940
0*
#1950
b11 V
b11 c
b111 W
b111 ]
b10 2
b10 P
b10 U
b10 b
b110 1
b110 Q
b110 [
b101 X
b100 5
b100 ;
b100 Z
b100 \
1*
#1960
0*
0'
#1970
b110 W
b110 ]
b111 1
b111 Q
b111 [
b110 X
b101 5
b101 ;
b101 Z
b101 \
1*
#1980
0*
#1990
b100 W
b100 ]
b101 1
b101 Q
b101 [
b111 X
b110 5
b110 ;
b110 Z
b110 \
1*
#1995
b10 B
b10 G
b11 0
b11 A
b11 H
b11 T
b101 S
b1 #
b1 4
b1 @
b100 C
b1001 -
b1101 +
1&
1'
#2000
0*
#2010
b101 W
b101 ]
b100 1
b100 Q
b100 [
b1000 X
b111 5
b111 ;
b111 Z
b111 \
1*
#2020
0*
#2030
b1111 W
b1111 ]
b1100 1
b1100 Q
b1100 [
b1001 X
b1000 5
b1000 ;
b1000 Z
b1000 \
1*
0'
#2040
0*
#2050
b1110 W
b1110 ]
b1101 1
b1101 Q
b1101 [
b1010 X
b1001 5
b1001 ;
b1001 Z
b1001 \
1*
#2060
0*
#2065
b110 B
b110 G
b101 0
b101 A
b101 H
b101 T
b1101 S
b110 3
b110 F
b110 M
b100 6
b100 <
b100 E
b100 C
b1010 -
0&
1'
#2070
b1100 W
b1100 ]
b110 O
b1111 1
b1111 Q
b1111 [
b1011 X
b1010 5
b1010 ;
b1010 Z
b1010 \
1*
#2080
0*
#2090
b100 V
b100 c
b1101 W
b1101 ]
b110 2
b110 P
b110 U
b110 b
b1110 1
b1110 Q
b1110 [
b1100 X
b1011 5
b1011 ;
b1011 Z
b1011 \
1*
#2100
0*
0'
#2110
b1000 W
b1000 ]
b1010 1
b1010 Q
b1010 [
b1101 X
b1100 5
b1100 ;
b1100 Z
b1100 \
1*
#2120
0*
#2130
b1001 W
b1001 ]
1!
b1011 1
b1011 Q
b1011 [
b1101 X
b1101 5
b1101 ;
b1101 Z
b1101 \
1*
#2135
b1001 B
b1001 G
b1101 0
b1101 A
b1101 H
b1101 T
b1011 S
b101 C
b1011 -
b10001101 +
1&
1'
#2140
0*
#2150
b1110 X
0!
1*
#2160
0*
#2170
b1011 W
b1011 ]
b1001 1
b1001 Q
b1001 [
b1111 X
b1110 5
b1110 ;
b1110 Z
b1110 \
1*
0'
#2180
0*
#2190
b1010 W
b1010 ]
b1000 1
b1000 Q
b1000 [
b0 X
b1111 5
b1111 ;
b1111 Z
b1111 \
1*
#2200
0*
#2205
b1101 B
b1101 G
b1011 0
b1011 A
b1011 H
b1011 T
b1000 S
b111 3
b111 F
b111 M
b101 6
b101 <
b101 E
b101 C
b1100 -
0&
1'
#2210
b0 W
b0 ]
b111 O
b0 1
b0 Q
b0 [
b1 X
b0 5
b0 ;
b0 Z
b0 \
1*
#2220
0*
#2230
b101 V
b101 c
b1 W
b1 ]
b111 2
b111 P
b111 U
b111 b
b1 1
b1 Q
b1 [
b10 X
b1 5
b1 ;
b1 Z
b1 \
1*
#2240
0*
0'
#2250
b11 W
b11 ]
b11 1
b11 Q
b11 [
b11 X
b10 5
b10 ;
b10 Z
b10 \
1*
#2260
0*
#2270
b10 W
b10 ]
b10 1
b10 Q
b10 [
b100 X
b11 5
b11 ;
b11 Z
b11 \
1*
#2275
b1111 B
b1111 G
b1000 0
b1000 A
b1000 H
b1000 T
b10 S
b110 C
b1101 -
b1100101 +
1&
1'
#2280
0*
#2290
b111 W
b111 ]
b110 1
b110 Q
b110 [
b101 X
b100 5
b100 ;
b100 Z
b100 \
1*
#2300
0*
#2310
b110 W
b110 ]
b111 1
b111 Q
b111 [
b110 X
b101 5
b101 ;
b101 Z
b101 \
1*
0'
#2320
0*
#2330
b100 W
b100 ]
b101 1
b101 Q
b101 [
b111 X
b110 5
b110 ;
b110 Z
b110 \
1*
#2340
0*
#2345
b11 B
b11 G
b10 0
b10 A
b10 H
b10 T
b101 S
b101 3
b101 F
b101 M
b110 6
b110 <
b110 E
b110 C
b1110 -
0&
1'
#2350
b101 W
b101 ]
b101 O
b100 1
b100 Q
b100 [
b1000 X
b111 5
b111 ;
b111 Z
b111 \
1*
#2360
0*
#2370
b110 V
b110 c
b1111 W
b1111 ]
b101 2
b101 P
b101 U
b101 b
b1100 1
b1100 Q
b1100 [
b1001 X
b1000 5
b1000 ;
b1000 Z
b1000 \
1*
#2380
0*
0'
#2390
b1110 W
b1110 ]
b1101 1
b1101 Q
b1101 [
b1010 X
b1001 5
b1001 ;
b1001 Z
b1001 \
1*
#2400
0*
#2410
b1100 W
b1100 ]
b1111 1
b1111 Q
b1111 [
b1011 X
b1010 5
b1010 ;
b1010 Z
b1010 \
1*
#2415
b110 B
b110 G
b101 0
b101 A
b101 H
b101 T
b1111 S
b111 C
b1111 -
b10010 +
1&
1'
#2420
0*
#2430
b1101 W
b1101 ]
b1110 1
b1110 Q
b1110 [
b1100 X
b1011 5
b1011 ;
b1011 Z
b1011 \
1*
#2440
0*
#2450
b1000 W
b1000 ]
b1010 1
b1010 Q
b1010 [
b1101 X
b1100 5
b1100 ;
b1100 Z
b1100 \
1*
0'
#2460
0*
#2470
b1001 W
b1001 ]
b1011 1
b1011 Q
b1011 [
b1110 X
b1101 5
b1101 ;
b1101 Z
b1101 \
1*
#2480
0*
#2485
b1010 B
b1010 G
b1111 0
b1111 A
b1111 H
b1111 T
b1011 S
b100 3
b100 F
b100 M
b111 6
b111 <
b111 E
1"
b111 C
b10000 -
0&
1'
#2490
b1011 W
b1011 ]
b100 O
b1001 1
b1001 Q
b1001 [
b1111 X
b1110 5
b1110 ;
b1110 Z
b1110 \
1*
#2500
0*
#2510
b111 V
b111 c
b1010 W
b1010 ]
b100 2
b100 P
b100 U
b100 b
b1000 1
b1000 Q
b1000 [
b1111 X
b1111 5
b1111 ;
b1111 Z
b1111 \
1!
1*
#2520
0*
0'
#2530
1*
#2540
0*
#2550
1*
#2555
b1101 B
b1101 G
b1011 0
b1011 A
b1011 H
b1011 T
b1000 S
0"
b10001 -
1'
#2560
0*
#2570
1*
#2580
0*
#2590
1*
0'
#2600
0*
#2610
1*
#2620
0*
#2625
b1111 B
b1111 G
b1000 0
b1000 A
b1000 H
b1000 T
b10010 -
1'
#2630
1*
#2640
0*
#2650
1*
#2660
0*
0'
#2670
1*
#2680
0*
#2690
1*
#2695
b1000 C
b10011 -
bx +
1&
1'
#2700
0*
#2710
1*
#2720
0*
#2730
1*
0'
#2740
0*
#2750
1*
#2760
0*
#2765
b1100 3
b1100 F
b1100 M
b1000 6
b1000 <
b1000 E
b1000 C
b10100 -
0&
1'
#2770
b1100 O
1*
#2780
0*
#2790
b1000 V
b1000 c
b1100 2
b1100 P
b1100 U
b1100 b
1*
#2800
0*
0'
#2810
b0 X
0!
1*
#2820
0*
#2830
b0 W
b0 ]
b0 1
b0 Q
b0 [
b1 X
b0 5
b0 ;
b0 Z
b0 \
1*
#2835
b0 S
bx #
bx 4
bx @
b1001 C
b10101 -
1&
1'
#2840
0*
#2850
b1 W
b1 ]
1!
b1 1
b1 Q
b1 [
b1 X
b1 5
b1 ;
b1 Z
b1 \
1*
#2860
0*
#2870
b10 X
0!
1*
0'
#2880
0*
#2890
b11 W
b11 ]
b11 1
b11 Q
b11 [
b11 X
b10 5
b10 ;
b10 Z
b10 \
1*
#2900
0*
#2905
b0 B
b0 G
b0 0
b0 A
b0 H
b0 T
b11 S
b1101 3
b1101 F
b1101 M
b1001 6
b1001 <
b1001 E
b1001 C
b10110 -
0&
1'
#2910
b10 W
b10 ]
b1101 O
b10 1
b10 Q
b10 [
b100 X
b11 5
b11 ;
b11 Z
b11 \
1*
#2920
0*
#2930
b1001 V
b1001 c
b111 W
b111 ]
b1101 2
b1101 P
b1101 U
b1101 b
b110 1
b110 Q
b110 [
b101 X
b100 5
b100 ;
b100 Z
b100 \
1*
#2940
0*
0'
#2950
b110 W
b110 ]
b111 1
b111 Q
b111 [
b110 X
b101 5
b101 ;
b101 Z
b101 \
1*
#2960
0*
#2970
b100 W
b100 ]
b101 1
b101 Q
b101 [
b111 X
b110 5
b110 ;
b110 Z
b110 \
1*
#2975
b10 B
b10 G
b11 0
b11 A
b11 H
b11 T
b101 S
b1010 C
b10111 -
1&
1'
#2980
0*
#2990
b101 W
b101 ]
b100 1
b100 Q
b100 [
b1000 X
b111 5
b111 ;
b111 Z
b111 \
1*
#3000
0*
#3010
b1111 W
b1111 ]
b1100 1
b1100 Q
b1100 [
b1001 X
b1000 5
b1000 ;
b1000 Z
b1000 \
1*
0'
#3020
0*
#3030
b1110 W
b1110 ]
b1101 1
b1101 Q
b1101 [
b1010 X
b1001 5
b1001 ;
b1001 Z
b1001 \
1*
#3040
0*
#3045
b110 B
b110 G
b101 0
b101 A
b101 H
b101 T
b1101 S
b1111 3
b1111 F
b1111 M
b1010 6
b1010 <
b1010 E
b1010 C
b11000 -
0&
1'
#3050
b1100 W
b1100 ]
b1111 O
b1111 1
b1111 Q
b1111 [
b1011 X
b1010 5
b1010 ;
b1010 Z
b1010 \
1*
#3060
0*
#3070
b1010 V
b1010 c
b1101 W
b1101 ]
b1111 2
b1111 P
b1111 U
b1111 b
b1110 1
b1110 Q
b1110 [
b1100 X
b1011 5
b1011 ;
b1011 Z
b1011 \
1*
#3080
0*
0'
#3090
b1000 W
b1000 ]
b1010 1
b1010 Q
b1010 [
b1101 X
b1100 5
b1100 ;
b1100 Z
b1100 \
1*
#3100
0*
#3110
b1001 W
b1001 ]
b1011 1
b1011 Q
b1011 [
b1110 X
b1101 5
b1101 ;
b1101 Z
b1101 \
1*
#3115
b1001 B
b1001 G
b1101 0
b1101 A
b1101 H
b1101 T
b1011 S
b1011 C
b11001 -
1&
1'
#3120
0*
#3130
b1011 W
b1011 ]
b1001 1
b1001 Q
b1001 [
b1111 X
b1110 5
b1110 ;
b1110 Z
b1110 \
1*
#3140
0*
#3150
b1010 W
b1010 ]
b1000 1
b1000 Q
b1000 [
b0 X
b1111 5
b1111 ;
b1111 Z
b1111 \
1*
0'
#3160
0*
#3170
b0 W
b0 ]
b0 1
b0 Q
b0 [
b1 X
b0 5
b0 ;
b0 Z
b0 \
1*
#3180
0*
#3185
b1101 B
b1101 G
b1011 0
b1011 A
b1011 H
b1011 T
b0 S
b1110 3
b1110 F
b1110 M
b1011 6
b1011 <
b1011 E
b1011 C
b11010 -
0&
1'
#3190
b1 W
b1 ]
b1110 O
b1 1
b1 Q
b1 [
b10 X
b1 5
b1 ;
b1 Z
b1 \
1*
#3200
0*
#3210
b1011 V
b1011 c
b11 W
b11 ]
b1110 2
b1110 P
b1110 U
b1110 b
b11 1
b11 Q
b11 [
b11 X
b10 5
b10 ;
b10 Z
b10 \
1*
#3220
0*
0'
#3230
b10 W
b10 ]
b10 1
b10 Q
b10 [
b100 X
b11 5
b11 ;
b11 Z
b11 \
1*
#3240
0*
#3250
b111 W
b111 ]
1!
b110 1
b110 Q
b110 [
b100 X
b100 5
b100 ;
b100 Z
b100 \
1*
#3255
b0 B
b0 G
b0 0
b0 A
b0 H
b0 T
b110 S
b1100 C
b11011 -
1&
1'
#3260
0*
#3270
b101 X
0!
1*
#3280
0*
#3290
b110 W
b110 ]
b111 1
b111 Q
b111 [
b110 X
b101 5
b101 ;
b101 Z
b101 \
1*
0'
#3300
0*
#3310
b100 W
b100 ]
b101 1
b101 Q
b101 [
b111 X
b110 5
b110 ;
b110 Z
b110 \
1*
#3320
0*
#3325
b100 B
b100 G
b110 0
b110 A
b110 H
b110 T
b101 S
b1010 3
b1010 F
b1010 M
b1100 6
b1100 <
b1100 E
b1100 C
b11100 -
0&
1'
#3330
b101 W
b101 ]
b1010 O
b100 1
b100 Q
b100 [
b1000 X
b111 5
b111 ;
b111 Z
b111 \
1*
#3340
0*
#3350
b1100 V
b1100 c
b1111 W
b1111 ]
b1010 2
b1010 P
b1010 U
b1010 b
b1100 1
b1100 Q
b1100 [
b1001 X
b1000 5
b1000 ;
b1000 Z
b1000 \
1*
#3360
0*
0'
#3370
b1110 W
b1110 ]
b1101 1
b1101 Q
b1101 [
b1010 X
b1001 5
b1001 ;
b1001 Z
b1001 \
1*
#3380
0*
#3390
b1100 W
b1100 ]
b1111 1
b1111 Q
b1111 [
b1011 X
b1010 5
b1010 ;
b1010 Z
b1010 \
1*
#3395
b110 B
b110 G
b101 0
b101 A
b101 H
b101 T
b1111 S
b1101 C
b11101 -
1&
1'
#3400
0*
#3410
b1101 W
b1101 ]
b1110 1
b1110 Q
b1110 [
b1100 X
b1011 5
b1011 ;
b1011 Z
b1011 \
1*
#3420
0*
#3430
b1000 W
b1000 ]
b1010 1
b1010 Q
b1010 [
b1101 X
b1100 5
b1100 ;
b1100 Z
b1100 \
1*
0'
#3440
0*
#3450
b1001 W
b1001 ]
b1011 1
b1011 Q
b1011 [
b1110 X
b1101 5
b1101 ;
b1101 Z
b1101 \
1*
#3460
0*
#3465
b1010 B
b1010 G
b1111 0
b1111 A
b1111 H
b1111 T
b1011 S
b1011 3
b1011 F
b1011 M
b1101 6
b1101 <
b1101 E
b1101 C
b11110 -
0&
1'
#3470
b1011 W
b1011 ]
b1011 O
b1001 1
b1001 Q
b1001 [
b1111 X
b1110 5
b1110 ;
b1110 Z
b1110 \
1*
#3480
0*
#3490
b1101 V
b1101 c
b1010 W
b1010 ]
b1011 2
b1011 P
b1011 U
b1011 b
b1000 1
b1000 Q
b1000 [
b0 X
b1111 5
b1111 ;
b1111 Z
b1111 \
1*
#3500
0*
0'
#3510
b0 W
b0 ]
b0 1
b0 Q
b0 [
b1 X
b0 5
b0 ;
b0 Z
b0 \
1*
#3515
b0 -
#3520
0*
#3530
b1 W
b1 ]
b1 1
b1 Q
b1 [
b10 X
b1 5
b1 ;
b1 Z
b1 \
1*
#3535
b1101 B
b1101 G
b1011 0
b1011 A
b1011 H
b1011 T
b1 S
b1110 C
b1 -
b100100 +
1&
1'
#3540
0*
#3550
b11 W
b11 ]
b11 1
b11 Q
b11 [
b11 X
b10 5
b10 ;
b10 Z
b10 \
1*
#3560
0*
#3570
b10 W
b10 ]
b10 1
b10 Q
b10 [
b100 X
b11 5
b11 ;
b11 Z
b11 \
1*
0'
#3580
0*
#3590
b111 W
b111 ]
b110 1
b110 Q
b110 [
b101 X
b100 5
b100 ;
b100 Z
b100 \
1*
#3600
0*
#3605
b1 B
b1 G
b1 0
b1 A
b1 H
b1 T
b110 S
b1001 3
b1001 F
b1001 M
b1110 6
b1110 <
b1110 E
1"
b1110 C
b10 -
0&
1'
#3610
b110 W
b110 ]
b1001 O
b111 1
b111 Q
b111 [
b110 X
b101 5
b101 ;
b101 Z
b101 \
1*
#3620
0*
#3630
b1110 V
b1110 c
b100 W
b100 ]
b1001 2
b1001 P
b1001 U
b1001 b
b101 1
b101 Q
b101 [
b110 X
b110 5
b110 ;
b110 Z
b110 \
1!
1*
#3640
0*
0'
#3650
1*
#3660
0*
#3670
1*
#3675
b100 B
b100 G
b110 0
b110 A
b110 H
b110 T
b101 S
0"
b11 -
1'
#3680
0*
#3690
1*
#3700
0*
#3710
1*
0'
#3720
0*
#3730
1*
#3740
0*
#3745
b110 B
b110 G
b101 0
b101 A
b101 H
b101 T
b100 -
1'
#3750
1*
#3760
0*
#3770
1*
#3780
0*
0'
#3790
1*
#3800
0*
#3810
1*
#3815
b1111 C
b101 -
b1001 +
1&
1'
#3820
0*
#3830
1*
#3840
0*
#3850
1*
0'
#3860
0*
#3870
1*
#3880
0*
#3885
b1000 3
b1000 F
b1000 M
b1111 6
b1111 <
b1111 E
b1111 C
b110 -
0&
1'
#3890
b1000 O
1*
#3900
0*
#3910
b1111 V
b1111 c
b1000 2
b1000 P
b1000 U
b1000 b
1*
#3920
0*
0'
#3930
b111 X
0!
1*
#3940
0*
#3950
b101 W
b101 ]
b100 1
b100 Q
b100 [
b1000 X
b111 5
b111 ;
b111 Z
b111 \
1*
#3955
b100 S
b0 C
b111 -
b1100011 +
1&
1'
#3960
0*
#3970
b1111 W
b1111 ]
1!
b1100 1
b1100 Q
b1100 [
b1000 X
b1000 5
b1000 ;
b1000 Z
b1000 \
1*
#3980
0*
#3990
b1001 X
0!
1*
0'
#4000
0*
#4010
b1110 W
b1110 ]
b1101 1
b1101 Q
b1101 [
b1010 X
b1001 5
b1001 ;
b1001 Z
b1001 \
1*
#4020
0*
#4025
b111 B
b111 G
b100 0
b100 A
b100 H
b100 T
b1101 S
b0 3
b0 F
b0 M
b0 6
b0 <
b0 E
b0 C
b1000 -
0&
1'
#4030
b1100 W
b1100 ]
b0 O
b1111 1
b1111 Q
b1111 [
b1011 X
b1010 5
b1010 ;
b1010 Z
b1010 \
1*
#4040
0*
#4050
b1101 W
b1101 ]
b0 V
b0 c
b0 2
b0 P
b0 U
b0 b
b1110 1
b1110 Q
b1110 [
b1100 X
b1011 5
b1011 ;
b1011 Z
b1011 \
1*
#4060
0*
0'
#4070
b1000 W
b1000 ]
b1010 1
b1010 Q
b1010 [
b1101 X
b1100 5
b1100 ;
b1100 Z
b1100 \
1*
#4080
0*
