readpointerhandler_tb.vcd
$date
	Mon Jul 15 12:23:44 2024
$end
$version
	Icarus Verilog
$end
$timescale
	1s
$end
$scope module tb_readpointerhandler $end
$var wire 4 ! g_rd_ptr [3:0] $end
$var wire 1 " empty $end
$var wire 4 # b_rd_ptr [3:0] $end
$var parameter 32 $ PTRWIDTH $end
$var reg 4 % g_wptr_sync [3:0] $end
$var reg 1 & r_en $end
$var reg 1 ' rdclk $end
$var reg 1 ( read_reset_n $end
$scope module uut $end
$var wire 4 ) g_wptr_sync [3:0] $end
$var wire 1 & r_en $end
$var wire 1 ' rdclk $end
$var wire 1 ( read_reset_n $end
$var wire 4 * binary [3:0] $end
$var wire 4 + b_rd_ptr_next [3:0] $end
$var parameter 32 , PTRWIDTH $end
$var reg 4 - b_rd_ptr [3:0] $end
$var reg 1 " empty $end
$var reg 4 . g_rd_ptr [3:0] $end
$scope module uut $end
$var wire 4 / data_in [3:0] $end
$var wire 4 0 data_out [3:0] $end
$var parameter 33 1 width $end
$scope begin genblk1[0] $end
$var parameter 2 2 i $end
$upscope $end
$scope begin genblk1[1] $end
$var parameter 2 3 i $end
$upscope $end
$scope begin genblk1[2] $end
$var parameter 3 4 i $end
$upscope $end
$upscope $end
$upscope $end
$upscope $end
$enddefinitions $end
$comment Show the parameter values. $end
$dumpall
b10 4
b1 3
b0 2
b100 1
b11 ,
b11 $
$end
#0
$dumpvars
b0 0
b0 /
b0 .
b0 -
b0 +
b0 *
b0 )
0(
0'
0&
b0 %
b0 #
0"
b0 !
$end
#5
1'
#10
0'
1(
#15
1"
1'
#20
b1 *
b1 0
0'
b1 %
b1 )
b1 /
#25
0"
1'
#30
b11 *
b11 0
0'
b10 %
b10 )
b10 /
#35
1'
#40
b10 *
b10 0
0'
b11 %
b11 )
b11 /
#45
1'
#50
b111 *
b111 0
0'
b100 %
b100 )
b100 /
#55
1'
#60
b110 *
b110 0
0'
b101 %
b101 )
b101 /
#65
1'
#70
b1 +
0'
1&
#75
b1 !
b1 .
b10 +
b1 #
b1 -
1'
#80
0'
#85
b11 !
b11 .
b11 +
b10 #
b10 -
1'
#90
b10 +
0'
0&
#95
1'
#100
b11 +
0'
1&
#105
b10 !
b10 .
b100 +
b11 #
b11 -
1'
#110
0'
#115
b110 !
b110 .
b101 +
b100 #
b100 -
1'
#120
b100 +
0'
0&
#125
1'
#130
b101 +
0'
1&
#135
b111 !
b111 .
b110 +
b101 #
b101 -
1'
#140
0'
#145
b101 !
b101 .
b111 +
b110 #
b110 -
1'
#150
b110 +
0'
0&
#155
1"
1'
#160
0'
1&
#165
1'
#170
0'
#175
1'
#180
0'
0&
#185
1'
#190
0'
1&
#195
1'
#200
0'
#205
1'
#210
0'
0&
#215
1'
#220
b101 *
b101 0
0'
b111 %
b111 )
b111 /
#225
0"
1'
#230
b111 +
0'
1&
#235
b100 !
b100 .
b1000 +
b111 #
b111 -
1'
#240
0'
#245
b1100 !
b1100 .
b1001 +
b1000 #
b1000 -
1'
#250
b1000 +
0'
0&
#255
1'
#260
b0 !
b0 .
b0 +
b0 #
b0 -
0'
0(
#265
1'
#270
0'
1(
